<?xml version="1.0" encoding="iso-8859-1"?>
<svg version="1.1" id="Capa_1" xmlns="http://www.w3.org/2000/svg" xmlns:xlink="http://www.w3.org/1999/xlink" x="0px" y="0px"
	 viewBox="0 0 58 58" style="enable-background:new 0 0 58 58;" xml:space="preserve">

	<path style="fill:#EFCE4A;" d="M55.981,54.5H2.019C0.904,54.5,0,53.596,0,52.481V20.5h58v31.981C58,53.596,57.096,54.5,55.981,54.5z
	"/>

	<path style="fill:#EBBA16;" d="M26.019,11.5V5.519C26.019,4.404,25.115,3.5,24,3.5H2.019C0.904,3.5,0,4.404,0,5.519V10.5v10h58
	v-6.981c0-1.115-0.904-2.019-2.019-2.019H26.019z"/>

</svg>
