<?xml version="1.0" encoding="iso-8859-1"?>
<!-- Generator: Adobe Illustrator 19.0.0, SVG Export Plug-In . SVG Version: 6.00 Build 0)  -->
<svg version="1.1" id="Capa_1" xmlns="http://www.w3.org/2000/svg" xmlns:xlink="http://www.w3.org/1999/xlink" x="0px" y="0px"
	 viewBox="0 0 512 512" style="enable-background:new 0 0 512 512;" xml:space="preserve">
<path style="fill:#CDD6E0;" d="M490.667,512H21.333C9.6,512,0,502.4,0,490.667V21.333C0,9.6,9.6,0,21.333,0h469.333
	C502.4,0,512,9.6,512,21.333v469.333C512,502.4,502.4,512,490.667,512z"/>
<circle style="fill:#ACB3BA;" cx="256" cy="256" r="206.933"/>
<path style="fill:#F2F2F2;" d="M440.533,289.067C432,336,406.4,376.533,371.2,404.267c-29.867-35.2-42.667-107.733-78.933-130.133
	c45.867,54.4-23.467,108.8,9.6,163.2c-14.933,3.2-29.867,5.333-44.8,5.333c-32,0-61.867-8.533-88.533-22.4
	c14.933-30.933,53.333-61.867,73.6-93.867c-33.067,28.8-90.667,20.267-113.067,65.067c-33.067-30.933-54.4-73.6-58.667-121.6
	c34.133-4.267,81.067,10.667,118.4,10.667c-42.667-11.733-66.133-65.067-116.267-58.667c8.533-46.933,34.133-87.467,69.333-115.2
	c29.867,35.2,42.667,107.733,78.933,130.133c-45.867-54.4,23.467-108.8-8.533-163.2c13.867-3.2,29.867-5.333,44.8-5.333
	c32,0,62.933,8.533,88.533,22.4c-14.933,30.933-53.333,61.867-73.6,93.867c33.067-28.8,90.667-20.267,112-65.067
	c33.067,30.933,55.467,73.6,58.667,121.6c-34.133,4.267-81.067-10.667-118.4-10.667C366.933,242.133,390.4,294.4,440.533,289.067z"
	/>
<circle style="fill:#FF7058;" cx="256" cy="256" r="86.4"/>
<circle style="fill:#FFFFFF;" cx="256" cy="256" r="24.533"/>
<g>
	<circle style="fill:#F2F2F2;" cx="49.067" cy="49.067" r="17.067"/>
	<circle style="fill:#F2F2F2;" cx="462.933" cy="49.067" r="17.067"/>
	<circle style="fill:#F2F2F2;" cx="49.067" cy="462.933" r="17.067"/>
	<circle style="fill:#F2F2F2;" cx="462.933" cy="462.933" r="17.067"/>
</g>
<g>
</g>
<g>
</g>
<g>
</g>
<g>
</g>
<g>
</g>
<g>
</g>
<g>
</g>
<g>
</g>
<g>
</g>
<g>
</g>
<g>
</g>
<g>
</g>
<g>
</g>
<g>
</g>
<g>
</g>
</svg>
